Protein: Arid3a	TTAATTAAA	Enrichment Score: 0.49407
A:	0.087	0.044	0.696	0.886	0.106	0.112	0.815	0.720	0.599
C:	0.111	0.096	0.010	0.004	0.005	0.182	0.046	0.082	0.046
G:	0.082	0.046	0.182	0.005	0.004	0.010	0.096	0.111	0.085
T:	0.720	0.815	0.112	0.106	0.886	0.696	0.044	0.087	0.270
