Protein: E2F2	AAGGCGCGC	Enrichment Score: 0.495945
A:	0.702	0.428	0.144	0.014	0.020	0.001	0.001	0.011	0.039
C:	0.102	0.068	0.191	0.021	0.963	0.024	0.920	0.098	0.865
G:	0.042	0.325	0.610	0.958	0.013	0.973	0.078	0.865	0.025
T:	0.155	0.179	0.055	0.007	0.004	0.002	0.001	0.026	0.071
