Protein: Ehf	ATTTCCGATC	Enrichment Score: 0.46608
A:	0.742	0.161	0.074	0.075	0.023	0.028	0.029	0.776	0.270	0.071
C:	0.063	0.234	0.014	0.014	0.926	0.922	0.075	0.083	0.158	0.546
G:	0.122	0.260	0.012	0.010	0.008	0.020	0.595	0.041	0.135	0.345
T:	0.073	0.346	0.900	0.901	0.043	0.030	0.300	0.099	0.437	0.038
