Protein: Eomes	AGGTGTGAAA	Enrichment Score: 0.496885
A:	0.654	0.096	0.003	0.003	0.007	0.040	0.009	0.984	0.790	0.650
C:	0.009	0.023	0.008	0.081	0.002	0.099	0.039	0.002	0.102	0.140
G:	0.262	0.843	0.976	0.001	0.990	0.003	0.844	0.009	0.029	0.090
T:	0.075	0.038	0.013	0.915	0.002	0.858	0.108	0.005	0.080	0.120
