Protein: Foxl1	CAAAACAA	Enrichment Score: 0.476325
A:	0.034	0.638	0.574	0.891	0.911	0.013	0.912	0.703
C:	0.570	0.167	0.106	0.053	0.028	0.739	0.019	0.069
G:	0.019	0.021	0.009	0.013	0.033	0.024	0.032	0.077
T:	0.378	0.174	0.311	0.043	0.028	0.224	0.038	0.151
