Protein: Glis2	GACCCCCC	Enrichment Score: 0.49373
A:	0.015	0.826	0.014	0.012	0.016	0.010	0.087	0.099
C:	0.073	0.108	0.965	0.976	0.962	0.972	0.805	0.761
G:	0.774	0.059	0.008	0.007	0.004	0.004	0.002	0.010
T:	0.138	0.007	0.013	0.005	0.019	0.014	0.105	0.130
