Protein: Irf6	ATCGAAACC	Enrichment Score: 0.494055
A:	0.668	0.200	0.030	0.020	0.984	0.699	0.990	0.009	0.022
C:	0.054	0.340	0.909	0.002	0.005	0.003	0.004	0.975	0.611
G:	0.206	0.114	0.006	0.976	0.009	0.007	0.003	0.011	0.019
T:	0.073	0.346	0.055	0.002	0.002	0.292	0.003	0.004	0.348
