Protein: Klf7	ATACGCCC	Enrichment Score: 0.49175
A:	0.611	0.181	0.760	0.004	0.037	0.009	0.007	0.005
C:	0.007	0.007	0.222	0.977	0.003	0.982	0.980	0.931
G:	0.106	0.072	0.006	0.004	0.946	0.005	0.008	0.003
T:	0.276	0.740	0.012	0.015	0.014	0.004	0.005	0.061
