Protein: Klf7	ACCCCGCCC	Enrichment Score: 0.4962
A:	0.549	0.051	0.038	0.410	0.010	0.204	0.004	0.004	0.003
C:	0.060	0.900	0.920	0.567	0.982	0.001	0.988	0.989	0.930
G:	0.337	0.022	0.008	0.016	0.001	0.749	0.003	0.004	0.001
T:	0.053	0.027	0.033	0.007	0.007	0.046	0.005	0.003	0.066
