Protein: Myb	CCAACTGCC	Enrichment Score: 0.49133
A:	0.064	0.126	0.985	0.986	0.005	0.023	0.021	0.151	0.031
C:	0.633	0.621	0.003	0.008	0.986	0.140	0.007	0.638	0.907
G:	0.088	0.013	0.006	0.003	0.004	0.016	0.969	0.021	0.015
T:	0.215	0.241	0.006	0.003	0.005	0.821	0.003	0.190	0.047
