Protein: Sox13	GGGTGGG	Enrichment Score: 0.411915
A:	0.054	0.077	0.215	0.249	0.047	0.072	0.124
C:	0.036	0.048	0.044	0.159	0.084	0.035	0.030
G:	0.784	0.789	0.664	0.015	0.789	0.769	0.713
T:	0.126	0.086	0.077	0.577	0.081	0.124	0.132
