Protein: Sox14	ATTATAAT	Enrichment Score: 0.483585
A:	0.905	0.093	0.192	0.789	0.016	0.772	0.861	0.050
C:	0.034	0.016	0.018	0.011	0.183	0.018	0.031	0.011
G:	0.011	0.031	0.018	0.183	0.011	0.018	0.016	0.034
T:	0.050	0.861	0.772	0.016	0.789	0.192	0.093	0.905
