Protein: Sox11	AACAAAGG	Enrichment Score: 0.48838
A:	0.859	0.976	0.006	0.987	0.988	0.693	0.189	0.352
C:	0.044	0.002	0.978	0.003	0.005	0.004	0.004	0.073
G:	0.084	0.002	0.007	0.003	0.003	0.002	0.801	0.568
T:	0.013	0.020	0.008	0.007	0.004	0.300	0.006	0.008
