Protein: Sox5	AACAATA	Enrichment Score: 0.48891
A:	0.828	0.976	0.005	0.973	0.974	0.031	0.492
C:	0.026	0.004	0.937	0.003	0.004	0.012	0.015
G:	0.131	0.005	0.009	0.006	0.011	0.004	0.085
T:	0.016	0.014	0.049	0.017	0.010	0.954	0.407
