Protein: Srf	CCATATATGG	Enrichment Score: 0.498985
A:	0.045	0.014	0.589	0.312	0.722	0.234	0.668	0.346	0.164	0.031
C:	0.907	0.813	0.045	0.011	0.009	0.034	0.009	0.031	0.009	0.017
G:	0.017	0.009	0.050	0.009	0.034	0.009	0.011	0.019	0.813	0.907
T:	0.031	0.164	0.316	0.668	0.234	0.722	0.312	0.604	0.014	0.045
