Protein: Sry	ATTATAAT	Enrichment Score: 0.48162
A:	0.959	0.049	0.072	0.917	0.009	0.909	0.927	0.023
C:	0.011	0.011	0.013	0.004	0.070	0.006	0.013	0.007
G:	0.007	0.013	0.006	0.070	0.004	0.013	0.011	0.011
T:	0.023	0.927	0.909	0.009	0.917	0.072	0.049	0.959
