Protein: Tcf7	GATCAAAG	Enrichment Score: 0.49558
A:	0.036	0.726	0.068	0.049	0.961	0.961	0.935	0.160
C:	0.378	0.010	0.008	0.815	0.005	0.005	0.005	0.060
G:	0.535	0.009	0.005	0.098	0.005	0.019	0.024	0.761
T:	0.051	0.255	0.920	0.037	0.029	0.016	0.036	0.019
