Protein: Tcfap2e	AAAAAA	Enrichment Score: 0.42486
A:	0.738	0.729	0.694	0.666	0.782	0.770
C:	0.058	0.074	0.085	0.112	0.060	0.106
G:	0.079	0.093	0.159	0.132	0.048	0.056
T:	0.125	0.104	0.061	0.091	0.110	0.068
