Protein: Tcfap2a	CCCTGAGGG	Enrichment Score: 0.49647
A:	0.014	0.007	0.002	0.005	0.040	0.492	0.137	0.004	0.021
C:	0.502	0.986	0.860	0.316	0.375	0.187	0.001	0.003	0.464
G:	0.464	0.003	0.001	0.187	0.497	0.316	0.860	0.986	0.502
T:	0.021	0.004	0.137	0.492	0.087	0.005	0.002	0.007	0.014
