Protein: Tcfe2a	CAGGTGC	Enrichment Score: 0.49695
A:	0.015	0.976	0.001	0.015	0.002	0.004	0.017
C:	0.981	0.020	0.191	0.091	0.006	0.001	0.664
G:	0.001	0.003	0.802	0.893	0.002	0.990	0.148
T:	0.003	0.001	0.006	0.001	0.991	0.005	0.171
