Protein: Zbtb7b	CCCCCCAAA	Enrichment Score: 0.494415
A:	0.048	0.006	0.006	0.013	0.004	0.092	0.372	0.615	0.670
C:	0.714	0.982	0.990	0.982	0.974	0.787	0.158	0.153	0.113
G:	0.225	0.009	0.002	0.001	0.002	0.026	0.109	0.040	0.073
T:	0.014	0.002	0.002	0.004	0.020	0.095	0.360	0.192	0.145
