Protein: Zbtb12	CATTAGAAC	Enrichment Score: 0.460575
A:	0.044	0.440	0.122	0.038	0.922	0.019	0.953	0.938	0.034
C:	0.663	0.191	0.029	0.031	0.016	0.012	0.016	0.032	0.929
G:	0.162	0.352	0.083	0.039	0.039	0.939	0.012	0.008	0.014
T:	0.132	0.018	0.767	0.892	0.022	0.030	0.019	0.022	0.023
