Protein: Zfp410	CCGCCCC	Enrichment Score: 0.422475
A:	0.069	0.060	0.023	0.167	0.050	0.104	0.065
C:	0.749	0.718	0.072	0.750	0.775	0.768	0.748
G:	0.069	0.075	0.646	0.063	0.089	0.069	0.115
T:	0.113	0.146	0.259	0.021	0.085	0.060	0.072
