Protein: Zfp740	CCCCCCG	Enrichment Score: 0.43775
A:	0.069	0.030	0.021	0.015	0.016	0.068	0.108
C:	0.813	0.908	0.933	0.948	0.885	0.744	0.141
G:	0.015	0.025	0.017	0.018	0.061	0.107	0.650
T:	0.103	0.038	0.029	0.018	0.038	0.081	0.101
