Protein: Zic2	CCCCCGGGGG	Enrichment Score: 0.495585
A:	0.136	0.116	0.104	0.057	0.057	0.072	0.059	0.029	0.065	0.114
C:	0.717	0.773	0.835	0.813	0.766	0.110	0.071	0.032	0.046	0.033
G:	0.033	0.046	0.032	0.071	0.157	0.632	0.813	0.835	0.773	0.717
T:	0.114	0.065	0.029	0.059	0.019	0.186	0.057	0.104	0.116	0.136
